{"count":114,"next":"http://18.119.159.104/files/?limit=10&offset=10","previous":null,"results":[{"url":"http://18.119.159.104/files/61/","id":61,"media":null,"projects":["http://18.119.159.104/projects/67/"],"project":"http://18.119.159.104/projects/67/","actions":["http://18.119.159.104/files/61/copy/","http://18.119.159.104/files/61/download/","http://18.119.159.104/files/61/text-replace/","http://18.119.159.104/files/61/thumbnail/","http://18.119.159.104/files/61/transcribe/","http://18.119.159.104/files/61/storage/"],"json":{"url":"file:///var/mobile/Containers/Data/Application/3A83CC7D-F259-45A8-AA34-1E9694A000B4/Library/Caches/ExponentExperienceData/@anonymous/reelai-0576b98e-2a97-448f-ac81-ae4ee2719903/Camera/6467CA29-2233-4953-9275-54A15E3513EA.mov","name":"clip_0"},"date_created":"2025-02-07T18:21:20.041708-06:00","date_updated":"2025-02-07T18:21:20.041725-06:00"},{"url":"http://18.119.159.104/files/62/","id":62,"media":null,"projects":["http://18.119.159.104/projects/67/"],"project":"http://18.119.159.104/projects/67/","actions":["http://18.119.159.104/files/62/copy/","http://18.119.159.104/files/62/download/","http://18.119.159.104/files/62/text-replace/","http://18.119.159.104/files/62/thumbnail/","http://18.119.159.104/files/62/transcribe/","http://18.119.159.104/files/62/storage/"],"json":{"url":"file:///var/mobile/Containers/Data/Application/3A83CC7D-F259-45A8-AA34-1E9694A000B4/Library/Caches/ExponentExperienceData/@anonymous/reelai-0576b98e-2a97-448f-ac81-ae4ee2719903/Camera/70A9C128-4811-4792-A51B-93973DA917BA.mov","name":"clip_2"},"date_created":"2025-02-07T18:21:21.218078-06:00","date_updated":"2025-02-07T18:21:21.218097-06:00"},{"url":"http://18.119.159.104/files/63/","id":63,"media":null,"projects":["http://18.119.159.104/projects/67/"],"project":"http://18.119.159.104/projects/67/","actions":["http://18.119.159.104/files/63/copy/","http://18.119.159.104/files/63/download/","http://18.119.159.104/files/63/text-replace/","http://18.119.159.104/files/63/thumbnail/","http://18.119.159.104/files/63/transcribe/","http://18.119.159.104/files/63/storage/"],"json":{"url":"file:///var/mobile/Containers/Data/Application/3A83CC7D-F259-45A8-AA34-1E9694A000B4/Library/Caches/ExponentExperienceData/@anonymous/reelai-0576b98e-2a97-448f-ac81-ae4ee2719903/Camera/B70C61E1-2053-4DA1-BC27-C038D12AD077.mov","name":"clip_1"},"date_created":"2025-02-07T18:21:21.220454-06:00","date_updated":"2025-02-07T18:21:21.220474-06:00"},{"url":"http://18.119.159.104/files/64/","id":64,"media":"http://18.119.159.104/media/video/files/68/clip_1","projects":["http://18.119.159.104/projects/68/"],"project":"http://18.119.159.104/projects/68/","actions":["http://18.119.159.104/files/64/copy/","http://18.119.159.104/files/64/download/","http://18.119.159.104/files/64/text-replace/","http://18.119.159.104/files/64/thumbnail/","http://18.119.159.104/files/64/transcribe/","http://18.119.159.104/files/64/storage/"],"json":{"fps":{"den":1,"num":30},"path":"/home/ubuntu/api/video/files/68/clip_1","type":"FFmpegReader","width":1920,"acodec":"aac","height":1080,"vcodec":"hevc","channels":1,"duration":3.231678009033203,"metadata":{"rotate":"90","encoder":"HEVC","language":"und","vendor_id":"[0][0][0][0]","major_brand":"qt","handler_name":"Core Media Audio","creation_time":"2025-02-08T00:03:17.000000Z","minor_version":"0","compatible_brands":"qt"},"file_size":"2018434","has_audio":true,"has_video":true,"media_type":"video","pixel_ratio":{"den":1,"num":1},"sample_rate":44100,"pixel_format":0,"video_length":"97","display_ratio":{"den":9,"num":16},"audio_bit_rate":89044,"audio_timebase":{"den":44100,"num":1},"channel_layout":4,"video_bit_rate":624258,"video_timebase":{"den":600,"num":1},"top_field_first":true,"has_single_image":false,"interlaced_frame":false,"audio_stream_index":1,"video_stream_index":0},"date_created":"2025-02-07T18:25:57.141941-06:00","date_updated":"2025-02-07T18:25:57.924200-06:00"},{"url":"http://18.119.159.104/files/65/","id":65,"media":"http://18.119.159.104/media/video/files/68/clip_2","projects":["http://18.119.159.104/projects/68/"],"project":"http://18.119.159.104/projects/68/","actions":["http://18.119.159.104/files/65/copy/","http://18.119.159.104/files/65/download/","http://18.119.159.104/files/65/text-replace/","http://18.119.159.104/files/65/thumbnail/","http://18.119.159.104/files/65/transcribe/","http://18.119.159.104/files/65/storage/"],"json":{"fps":{"den":1,"num":30},"path":"/home/ubuntu/api/video/files/68/clip_2","type":"FFmpegReader","width":1920,"acodec":"aac","height":1080,"vcodec":"hevc","channels":1,"duration":2.231678009033203,"metadata":{"rotate":"90","encoder":"HEVC","language":"und","vendor_id":"[0][0][0][0]","major_brand":"qt","handler_name":"Core Media Audio","creation_time":"2025-02-08T00:03:25.000000Z","minor_version":"0","compatible_brands":"qt"},"file_size":"2282108","has_audio":true,"has_video":true,"media_type":"video","pixel_ratio":{"den":1,"num":1},"sample_rate":44100,"pixel_format":0,"video_length":"67","display_ratio":{"den":9,"num":16},"audio_bit_rate":91001,"audio_timebase":{"den":44100,"num":1},"channel_layout":4,"video_bit_rate":1022602,"video_timebase":{"den":600,"num":1},"top_field_first":true,"has_single_image":false,"interlaced_frame":false,"audio_stream_index":1,"video_stream_index":0},"date_created":"2025-02-07T18:25:58.546814-06:00","date_updated":"2025-02-07T18:25:59.222523-06:00"},{"url":"http://18.119.159.104/files/66/","id":66,"media":"http://18.119.159.104/media/video/files/69/clip_1","projects":["http://18.119.159.104/projects/69/"],"project":"http://18.119.159.104/projects/69/","actions":["http://18.119.159.104/files/66/copy/","http://18.119.159.104/files/66/download/","http://18.119.159.104/files/66/text-replace/","http://18.119.159.104/files/66/thumbnail/","http://18.119.159.104/files/66/transcribe/","http://18.119.159.104/files/66/storage/"],"json":{"fps":{"den":1,"num":30},"path":"/home/ubuntu/api/video/files/69/clip_1","type":"FFmpegReader","width":1920,"acodec":"aac","height":1080,"vcodec":"hevc","channels":1,"duration":3.36501145362854,"metadata":{"rotate":"90","encoder":"HEVC","language":"und","vendor_id":"[0][0][0][0]","major_brand":"qt","handler_name":"Core Media Audio","creation_time":"2025-02-08T00:25:20.000000Z","minor_version":"0","compatible_brands":"qt"},"file_size":"3428366","has_audio":true,"has_video":true,"media_type":"video","pixel_ratio":{"den":1,"num":1},"sample_rate":44100,"pixel_format":0,"video_length":"101","display_ratio":{"den":9,"num":16},"audio_bit_rate":95311,"audio_timebase":{"den":44100,"num":1},"channel_layout":4,"video_bit_rate":1018326,"video_timebase":{"den":600,"num":1},"top_field_first":true,"has_single_image":false,"interlaced_frame":false,"audio_stream_index":1,"video_stream_index":0},"date_created":"2025-02-07T18:25:58.601422-06:00","date_updated":"2025-02-07T18:25:59.288643-06:00"},{"url":"http://18.119.159.104/files/67/","id":67,"media":"http://18.119.159.104/media/video/files/69/clip_2","projects":["http://18.119.159.104/projects/69/"],"project":"http://18.119.159.104/projects/69/","actions":["http://18.119.159.104/files/67/copy/","http://18.119.159.104/files/67/download/","http://18.119.159.104/files/67/text-replace/","http://18.119.159.104/files/67/thumbnail/","http://18.119.159.104/files/67/transcribe/","http://18.119.159.104/files/67/storage/"],"json":{"fps":{"den":1,"num":30},"path":"/home/ubuntu/api/video/files/69/clip_2","type":"FFmpegReader","width":1920,"acodec":"aac","height":1080,"vcodec":"hevc","channels":1,"duration":2.6316781044006348,"metadata":{"rotate":"90","encoder":"HEVC","language":"und","vendor_id":"[0][0][0][0]","major_brand":"qt","handler_name":"Core Media Audio","creation_time":"2025-02-08T00:25:26.000000Z","minor_version":"0","compatible_brands":"qt"},"file_size":"1865970","has_audio":true,"has_video":true,"media_type":"video","pixel_ratio":{"den":1,"num":1},"sample_rate":44100,"pixel_format":0,"video_length":"79","display_ratio":{"den":9,"num":16},"audio_bit_rate":94472,"audio_timebase":{"den":44100,"num":1},"channel_layout":4,"video_bit_rate":708596,"video_timebase":{"den":600,"num":1},"top_field_first":true,"has_single_image":false,"interlaced_frame":false,"audio_stream_index":1,"video_stream_index":0},"date_created":"2025-02-07T18:25:58.608056-06:00","date_updated":"2025-02-07T18:25:59.408758-06:00"},{"url":"http://18.119.159.104/files/68/","id":68,"media":"http://18.119.159.104/media/video/files/68/clip_0","projects":["http://18.119.159.104/projects/68/"],"project":"http://18.119.159.104/projects/68/","actions":["http://18.119.159.104/files/68/copy/","http://18.119.159.104/files/68/download/","http://18.119.159.104/files/68/text-replace/","http://18.119.159.104/files/68/thumbnail/","http://18.119.159.104/files/68/transcribe/","http://18.119.159.104/files/68/storage/"],"json":{"fps":{"den":1,"num":30},"path":"/home/ubuntu/api/video/files/68/clip_0","type":"FFmpegReader","width":1920,"acodec":"aac","height":1080,"vcodec":"hevc","channels":1,"duration":2.6666667461395264,"metadata":{"rotate":"90","encoder":"HEVC","language":"und","vendor_id":"[0][0][0][0]","major_brand":"qt","handler_name":"Core Media Audio","creation_time":"2025-02-08T00:03:12.000000Z","minor_version":"0","compatible_brands":"qt"},"file_size":"1880283","has_audio":true,"has_video":true,"media_type":"video","pixel_ratio":{"den":1,"num":1},"sample_rate":44100,"pixel_format":0,"video_length":"80","display_ratio":{"den":9,"num":16},"audio_bit_rate":89021,"audio_timebase":{"den":44100,"num":1},"channel_layout":4,"video_bit_rate":705106,"video_timebase":{"den":600,"num":1},"top_field_first":true,"has_single_image":false,"interlaced_frame":false,"audio_stream_index":1,"video_stream_index":0},"date_created":"2025-02-07T18:25:58.649089-06:00","date_updated":"2025-02-07T18:25:59.370571-06:00"},{"url":"http://18.119.159.104/files/69/","id":69,"media":"http://18.119.159.104/media/video/files/70/clip_0","projects":["http://18.119.159.104/projects/70/"],"project":"http://18.119.159.104/projects/70/","actions":["http://18.119.159.104/files/69/copy/","http://18.119.159.104/files/69/download/","http://18.119.159.104/files/69/text-replace/","http://18.119.159.104/files/69/thumbnail/","http://18.119.159.104/files/69/transcribe/","http://18.119.159.104/files/69/storage/"],"json":{"fps":{"den":1,"num":30},"path":"/home/ubuntu/api/video/files/70/clip_0","type":"FFmpegReader","width":1920,"acodec":"aac","height":1080,"vcodec":"hevc","channels":1,"duration":3.731678009033203,"metadata":{"rotate":"90","encoder":"HEVC","language":"und","vendor_id":"[0][0][0][0]","major_brand":"qt","handler_name":"Core Media Audio","creation_time":"2025-02-08T00:25:13.000000Z","minor_version":"0","compatible_brands":"qt"},"file_size":"2783662","has_audio":true,"has_video":true,"media_type":"video","pixel_ratio":{"den":1,"num":1},"sample_rate":44100,"pixel_format":0,"video_length":"112","display_ratio":{"den":9,"num":16},"audio_bit_rate":91698,"audio_timebase":{"den":44100,"num":1},"channel_layout":4,"video_bit_rate":745956,"video_timebase":{"den":600,"num":1},"top_field_first":true,"has_single_image":false,"interlaced_frame":false,"audio_stream_index":1,"video_stream_index":0},"date_created":"2025-02-07T18:28:58.717533-06:00","date_updated":"2025-02-07T18:28:59.435011-06:00"},{"url":"http://18.119.159.104/files/70/","id":70,"media":"http://18.119.159.104/media/video/files/70/clip_1","projects":["http://18.119.159.104/projects/70/"],"project":"http://18.119.159.104/projects/70/","actions":["http://18.119.159.104/files/70/copy/","http://18.119.159.104/files/70/download/","http://18.119.159.104/files/70/text-replace/","http://18.119.159.104/files/70/thumbnail/","http://18.119.159.104/files/70/transcribe/","http://18.119.159.104/files/70/storage/"],"json":{"fps":{"den":1,"num":30},"path":"/home/ubuntu/api/video/files/70/clip_1","type":"FFmpegReader","width":1920,"acodec":"aac","height":1080,"vcodec":"hevc","channels":1,"duration":3.36501145362854,"metadata":{"rotate":"90","encoder":"HEVC","language":"und","vendor_id":"[0][0][0][0]","major_brand":"qt","handler_name":"Core Media Audio","creation_time":"2025-02-08T00:25:20.000000Z","minor_version":"0","compatible_brands":"qt"},"file_size":"3428366","has_audio":true,"has_video":true,"media_type":"video","pixel_ratio":{"den":1,"num":1},"sample_rate":44100,"pixel_format":0,"video_length":"101","display_ratio":{"den":9,"num":16},"audio_bit_rate":95311,"audio_timebase":{"den":44100,"num":1},"channel_layout":4,"video_bit_rate":1018326,"video_timebase":{"den":600,"num":1},"top_field_first":true,"has_single_image":false,"interlaced_frame":false,"audio_stream_index":1,"video_stream_index":0},"date_created":"2025-02-07T18:29:00.777017-06:00","date_updated":"2025-02-07T18:29:01.440716-06:00"}]}